%YAML 1.1
%TAG !u! tag:unity3d.com,2011:
--- !u!1 &9009226925557564975
GameObject:
  m_ObjectHideFlags: 0
  m_CorrespondingSourceObject: {fileID: 0}
  m_PrefabInstance: {fileID: 0}
  m_PrefabAsset: {fileID: 0}
  serializedVersion: 6
  m_Component:
  - component: {fileID: 755461379622693308}
  m_Layer: 9
  m_Name: PREF_Kart_Model_Yoshi
  m_TagString: Untagged
  m_Icon: {fileID: 0}
  m_NavMeshLayer: 0
  m_StaticEditorFlags: 0
  m_IsActive: 1
--- !u!4 &755461379622693308
Transform:
  m_ObjectHideFlags: 0
  m_CorrespondingSourceObject: {fileID: 0}
  m_PrefabInstance: {fileID: 0}
  m_PrefabAsset: {fileID: 0}
  m_GameObject: {fileID: 9009226925557564975}
  m_LocalRotation: {x: 0, y: 0, z: 0, w: 1}
  m_LocalPosition: {x: 0, y: 0, z: 0}
  m_LocalScale: {x: 1, y: 1, z: 1}
  m_Children:
  - {fileID: 4343747863195095093}
  m_Father: {fileID: 0}
  m_RootOrder: 0
  m_LocalEulerAnglesHint: {x: 0, y: 0, z: 0}
--- !u!1001 &8733222278826998575
PrefabInstance:
  m_ObjectHideFlags: 0
  serializedVersion: 2
  m_Modification:
    m_TransformParent: {fileID: 755461379622693308}
    m_Modifications:
    - target: {fileID: -927199367670048503, guid: 9feb3d368fb7d534293b8a421e433da3,
        type: 3}
      propertyPath: m_Name
      value: SM_Yoshi
      objectReference: {fileID: 0}
    - target: {fileID: -927199367670048503, guid: 9feb3d368fb7d534293b8a421e433da3,
        type: 3}
      propertyPath: m_Layer
      value: 9
      objectReference: {fileID: 0}
    - target: {fileID: -3343618583416210887, guid: 9feb3d368fb7d534293b8a421e433da3,
        type: 3}
      propertyPath: m_Layer
      value: 9
      objectReference: {fileID: 0}
    - target: {fileID: -6898218486724498953, guid: 9feb3d368fb7d534293b8a421e433da3,
        type: 3}
      propertyPath: m_Layer
      value: 9
      objectReference: {fileID: 0}
    - target: {fileID: -4216859302048453862, guid: 9feb3d368fb7d534293b8a421e433da3,
        type: 3}
      propertyPath: m_LocalPosition.x
      value: -0
      objectReference: {fileID: 0}
    - target: {fileID: -4216859302048453862, guid: 9feb3d368fb7d534293b8a421e433da3,
        type: 3}
      propertyPath: m_LocalPosition.y
      value: 0
      objectReference: {fileID: 0}
    - target: {fileID: -4216859302048453862, guid: 9feb3d368fb7d534293b8a421e433da3,
        type: 3}
      propertyPath: m_LocalPosition.z
      value: 0
      objectReference: {fileID: 0}
    - target: {fileID: -4216859302048453862, guid: 9feb3d368fb7d534293b8a421e433da3,
        type: 3}
      propertyPath: m_LocalRotation.x
      value: 0
      objectReference: {fileID: 0}
    - target: {fileID: -4216859302048453862, guid: 9feb3d368fb7d534293b8a421e433da3,
        type: 3}
      propertyPath: m_LocalRotation.y
      value: -0
      objectReference: {fileID: 0}
    - target: {fileID: -4216859302048453862, guid: 9feb3d368fb7d534293b8a421e433da3,
        type: 3}
      propertyPath: m_LocalRotation.z
      value: -0
      objectReference: {fileID: 0}
    - target: {fileID: -4216859302048453862, guid: 9feb3d368fb7d534293b8a421e433da3,
        type: 3}
      propertyPath: m_LocalRotation.w
      value: 1
      objectReference: {fileID: 0}
    - target: {fileID: -4216859302048453862, guid: 9feb3d368fb7d534293b8a421e433da3,
        type: 3}
      propertyPath: m_RootOrder
      value: 0
      objectReference: {fileID: 0}
    - target: {fileID: -4216859302048453862, guid: 9feb3d368fb7d534293b8a421e433da3,
        type: 3}
      propertyPath: m_LocalEulerAnglesHint.x
      value: 0
      objectReference: {fileID: 0}
    - target: {fileID: -4216859302048453862, guid: 9feb3d368fb7d534293b8a421e433da3,
        type: 3}
      propertyPath: m_LocalEulerAnglesHint.y
      value: 0
      objectReference: {fileID: 0}
    - target: {fileID: -4216859302048453862, guid: 9feb3d368fb7d534293b8a421e433da3,
        type: 3}
      propertyPath: m_LocalEulerAnglesHint.z
      value: 0
      objectReference: {fileID: 0}
    m_RemovedComponents: []
  m_SourcePrefab: {fileID: 100100000, guid: 9feb3d368fb7d534293b8a421e433da3, type: 3}
--- !u!4 &4343747863195095093 stripped
Transform:
  m_CorrespondingSourceObject: {fileID: -4216859302048453862, guid: 9feb3d368fb7d534293b8a421e433da3,
    type: 3}
  m_PrefabInstance: {fileID: 8733222278826998575}
  m_PrefabAsset: {fileID: 0}
