%YAML 1.1
%TAG !u! tag:unity3d.com,2011:
--- !u!114 &11400000
MonoBehaviour:
  m_ObjectHideFlags: 0
  m_CorrespondingSourceObject: {fileID: 0}
  m_PrefabInstance: {fileID: 0}
  m_PrefabAsset: {fileID: 0}
  m_GameObject: {fileID: 0}
  m_Enabled: 1
  m_EditorHideFlags: 0
  m_Script: {fileID: 11500000, guid: 8440eab4fede77b45874b5e5240eba5b, type: 3}
  m_Name: GoldenMushroomPowerUp
  m_EditorClassIdentifier: 
  Target: 0
  DefaultDirection: 4
  DirectionsAllowed: 
  Amount: 10
  Duration: 10
  CooldownUsage: 0.25
  RotatorModel: []
  m_PowerupSprite: {fileID: 21300000, guid: 4761d58f24c7bfc47bb7d18c92513790, type: 3}
  m_PowerUpEffect: {fileID: 11400000, guid: f66a3b7d7b05b1045b041707e7f6f9cf, type: 2}
