%YAML 1.1
%TAG !u! tag:unity3d.com,2011:
--- !u!114 &11400000
MonoBehaviour:
  m_ObjectHideFlags: 0
  m_CorrespondingSourceObject: {fileID: 0}
  m_PrefabInstance: {fileID: 0}
  m_PrefabAsset: {fileID: 0}
  m_GameObject: {fileID: 0}
  m_Enabled: 1
  m_EditorHideFlags: 0
  m_Script: {fileID: 11500000, guid: a8bc50c0e0fca3c4aaf568a99495d593, type: 3}
  m_Name: TripleBananaPowerup
  m_EditorClassIdentifier: 
  Target: 0
  DefaultDirection: 3
  DirectionsAllowed: 0000000003000000
  Amount: 3
  Duration: 99999
  CooldownUsage: 0.25
  RotatorModel:
  - {fileID: 1810679459469826292, guid: 0fce7c999a8df8940a3b3bac5efb0af5, type: 3}
  - {fileID: 1810679459469826292, guid: 0fce7c999a8df8940a3b3bac5efb0af5, type: 3}
  - {fileID: 1810679459469826292, guid: 0fce7c999a8df8940a3b3bac5efb0af5, type: 3}
  m_PowerupSprite: {fileID: 21300000, guid: 15ed5690e1f8f664589ce30d6b9f9a19, type: 3}
  BananaObject: {fileID: 1415851265236322015, guid: 7e5bb9ee45e3a8f49a92a4929238f124,
    type: 3}
  HeightForce: 60
  LengthForce: 47
  GravityForce: 2750
