%YAML 1.1
%TAG !u! tag:unity3d.com,2011:
--- !u!114 &11400000
MonoBehaviour:
  m_ObjectHideFlags: 0
  m_CorrespondingSourceObject: {fileID: 0}
  m_PrefabInstance: {fileID: 0}
  m_PrefabAsset: {fileID: 0}
  m_GameObject: {fileID: 0}
  m_Enabled: 1
  m_EditorHideFlags: 0
  m_Script: {fileID: 11500000, guid: 06383ebfd6fb87b499ae901a53e2a21a, type: 3}
  m_Name: BooPowerUp
  m_EditorClassIdentifier: 
  Target: 0
  DefaultDirection: 0
  DirectionsAllowed: 
  Amount: 1
  Duration: 1
  CooldownUsage: 0.25
  RotatorModel: []
  m_PowerupSprite: {fileID: 21300000, guid: 49e7cb32a5ee74e43959d479d2ae24aa, type: 3}
  BooEffect: {fileID: 11400000, guid: 9a54c0e8d03a16e40b9b6eeb70f716a1, type: 2}
  m_TargetLayerMask:
    serializedVersion: 2
    m_Bits: 512
