%YAML 1.1
%TAG !u! tag:unity3d.com,2011:
--- !u!114 &11400000
MonoBehaviour:
  m_ObjectHideFlags: 0
  m_CorrespondingSourceObject: {fileID: 0}
  m_PrefabInstance: {fileID: 0}
  m_PrefabAsset: {fileID: 0}
  m_GameObject: {fileID: 0}
  m_Enabled: 1
  m_EditorHideFlags: 0
  m_Script: {fileID: 11500000, guid: 4dcf4cc81e56732409c390051d5555f7, type: 3}
  m_Name: FireFlowerPouwerUp
  m_EditorClassIdentifier: 
  Target: 1
  DefaultDirection: 0
  DirectionsAllowed: 00000000010000000200000003000000
  Amount: 10
  Duration: 10
  CooldownUsage: 0.1
  RotatorModel: []
  m_PowerupSprite: {fileID: 21300000, guid: 881a7832bba3c5d4589fc3b0e6d74029, type: 3}
  FireFlowerObject: {fileID: 5558067151912441846, guid: 8c076936741251043a2394d1d16a069f,
    type: 3}
