%YAML 1.1
%TAG !u! tag:unity3d.com,2011:
--- !u!114 &11400000
MonoBehaviour:
  m_ObjectHideFlags: 0
  m_CorrespondingSourceObject: {fileID: 0}
  m_PrefabInstance: {fileID: 0}
  m_PrefabAsset: {fileID: 0}
  m_GameObject: {fileID: 0}
  m_Enabled: 1
  m_EditorHideFlags: 0
  m_Script: {fileID: 11500000, guid: 5de41f1e82f44434088618252baff597, type: 3}
  m_Name: StarmanPowerUp
  m_EditorClassIdentifier: 
  Target: 0
  DefaultDirection: 0
  DirectionsAllowed: 
  Amount: 1
  Duration: 1
  CooldownUsage: 0.1
  RotatorModel: []
  m_PowerupSprite: {fileID: 21300000, guid: 326ed4cc56e130442aa26a7fd2d6362f, type: 3}
  m_PowerUpEffect: {fileID: 11400000, guid: ff7e3408b0767124e99004540e4b3518, type: 2}
