%YAML 1.1
%TAG !u! tag:unity3d.com,2011:
--- !u!114 &11400000
MonoBehaviour:
  m_ObjectHideFlags: 0
  m_CorrespondingSourceObject: {fileID: 0}
  m_PrefabInstance: {fileID: 0}
  m_PrefabAsset: {fileID: 0}
  m_GameObject: {fileID: 0}
  m_Enabled: 1
  m_EditorHideFlags: 0
  m_Script: {fileID: 11500000, guid: e4587b909cf24457aa28da1c1afd5b53, type: 3}
  m_Name: TestStats
  m_EditorClassIdentifier: 
  m_GroundSpeed: 12.5
  m_GroundBrake: 10
  m_GroundAcceleration: 10
  m_GroundWeight: 1
  m_GroundHandling: 15
  m_GroundGrip: 1.5
  m_AirSpeed: 0
  m_AirAcceleration: 0
  m_AirWeight: 0
  m_AirHandling: 45
  m_AirGrip: 0
